<?xml version="1.0" encoding="UTF-8" standalone="no"?>
<!-- Created with Inkscape (http://www.inkscape.org/) -->

<svg
   width="8.5in"
   height="11in"
   viewBox="0 0 215.9 279.4"
   version="1.1"
   id="svg5"
   sodipodi:docname="cajita2024v3_bisagra_okok.svg"
   inkscape:version="1.3.2 (091e20ef0f, 2023-11-25, custom)"
   inkscape:export-filename="cajita2024v3_bisagra_okok.png"
   inkscape:export-xdpi="96"
   inkscape:export-ydpi="96"
   xmlns:inkscape="http://www.inkscape.org/namespaces/inkscape"
   xmlns:sodipodi="http://sodipodi.sourceforge.net/DTD/sodipodi-0.dtd"
   xmlns="http://www.w3.org/2000/svg"
   xmlns:svg="http://www.w3.org/2000/svg">
  <sodipodi:namedview
     id="namedview7"
     pagecolor="#ffffff"
     bordercolor="#000000"
     borderopacity="0.25"
     inkscape:showpageshadow="2"
     inkscape:pageopacity="0.0"
     inkscape:pagecheckerboard="0"
     inkscape:deskcolor="#d1d1d1"
     inkscape:document-units="mm"
     showgrid="true"
     inkscape:zoom="0.82116752"
     inkscape:cx="472.49799"
     inkscape:cy="739.19144"
     inkscape:window-width="1920"
     inkscape:window-height="1012"
     inkscape:window-x="0"
     inkscape:window-y="32"
     inkscape:window-maximized="1"
     inkscape:current-layer="layer1"
     showguides="true">
    <inkscape:grid
       type="xygrid"
       id="grid289"
       units="mm"
       originx="0"
       originy="0"
       spacingx="1"
       spacingy="1"
       empspacing="1"
       dotted="false"
       visible="true" />
  </sodipodi:namedview>
  <defs
     id="defs2" />
  <g
     inkscape:groupmode="layer"
     id="layer2"
     inkscape:label="oki"
     transform="translate(-225.89999)" />
  <g
     inkscape:label="Capa 1"
     inkscape:groupmode="layer"
     id="layer1"
     style="display:inline"
     transform="translate(-225.89999)">
    <path
       id="path3454"
       style="display:inline;fill:none;fill-rule:evenodd;stroke:#000000;stroke-width:0.1;stroke-linejoin:miter;stroke-dasharray:none;stroke-opacity:1"
       d="M 245.9001,216.99997 245.89987,224 h -3.00002 v 14.99999 h 3.00002 l 2e-5,9.99998 h 25.00021 v 2.99997 h 20.00008 v -2.99997 h 9.99995 L 300.90015,217 Z"
       sodipodi:nodetypes="ccccccccccccc" />
    <path
       id="path10478"
       style="fill:none;fill-rule:evenodd;stroke:#000000;stroke-width:0.1;stroke-dasharray:none;stroke-opacity:1"
       d="m 277.90175,49.999993 c -1.00074,0 -2,1 -2,2 -0.002,1.92497 -4e-5,2.07503 -4e-5,2.07503 l -20.00136,0.003 L 255.89999,120 h -3 v 3 h 76 v -3 h -3 l 10e-4,-65.924997 h -20 l 7.6e-4,-2.07499 c 0,-1 -1,-2 -2,-2 z"
       sodipodi:nodetypes="scccccccccccccs" />
    <g
       id="g19389"
       transform="matrix(1,0,0,-1,-83.05834,400)"
       style="stroke-width:0.1;stroke-dasharray:none">
      <path
         id="path1662"
         style="display:inline;fill:none;fill-rule:evenodd;stroke:#000000;stroke-width:0.1;stroke-dasharray:none;stroke-opacity:1"
         d="m 471.95833,217 h 3 v -20 h -3 v -14 h -70 v 14 h -3 v 20 h 3 v 13 h 70 z m -17,6 v 3 h -36 v -3 z"
         sodipodi:nodetypes="cccccccccccccccccc" />
      <path
         style="color:#000000;opacity:0.65;fill:none;fill-opacity:1;stroke:#000000;stroke-width:0.1;stroke-dasharray:none;stroke-opacity:1"
         d="m 410.89999,190.73237 v 15 h 9 v -15 z"
         id="path1664"
         sodipodi:nodetypes="ccccc" />
      <ellipse
         style="display:inline;fill:none;stroke:#000000;stroke-width:0.1;stroke-dasharray:none"
         id="ellipse1666"
         cx="-462.40671"
         cy="-198.23238"
         rx="3.4639041"
         ry="3.4639037"
         transform="scale(-1)" />
      <path
         style="color:#000000;opacity:0.65;fill:none;fill-opacity:1;stroke:#000000;stroke-width:0.1;stroke-dasharray:none;stroke-opacity:1"
         d="m 439.4214,193.59662 c 2.55506,0 4.62475,2.07612 4.62474,4.63673 0,2.5606 -2.06968,4.63478 -4.62474,4.63478 -2.55506,0 -4.62474,-2.07418 -4.62474,-4.63478 0,-2.56061 2.06967,-4.63673 4.62474,-4.63673 z"
         id="path1668"
         sodipodi:nodetypes="sssss" />
    </g>
    <g
       id="g9487"
       style="display:inline;stroke-width:0.1;stroke-dasharray:none"
       transform="translate(84.00002,-130.00002)">
      <g
         id="g9481"
         style="stroke-width:0.1;stroke-dasharray:none">
        <path
           style="color:#000000;display:inline;opacity:0.65;fill:none;stroke:#000000;stroke-width:0.1;stroke-dasharray:none;stroke-opacity:1"
           d="m 289.89997,202 h -20 v -3 h 20 z"
           id="path3450-5"
           sodipodi:nodetypes="ccccc" />
        <path
           style="color:#000000;display:inline;opacity:0.65;fill:none;stroke:#000000;stroke-width:0.1;stroke-dasharray:none;stroke-opacity:1"
           d="m 262.9106,206.66498 c 1.34153,3.5e-4 1.99726,0.89522 1.99726,1.99725 0,1.10214 -0.65573,1.99671 -1.99726,1.99725 -1.34152,6.9e-4 -1.99777,-0.89413 -1.99777,-1.99725 0,-1.10301 0.65625,-1.99764 1.99777,-1.99725 z m 33.97975,0 c 1.34153,3.5e-4 1.99676,0.89523 1.99676,1.99725 0,1.10214 -0.65523,1.99671 -1.99676,1.99725 -1.34152,6.9e-4 -1.99778,-0.89413 -1.99778,-1.99725 0,-1.103 0.65626,-1.99764 1.99778,-1.99725 z m 0,34.0064 c 1.34154,3.5e-4 1.99676,0.89522 1.99676,1.99725 0,1.10214 -0.65522,1.99673 -1.99676,1.99727 -1.34153,6.8e-4 -1.99778,-0.89415 -1.99778,-1.99727 0,-1.103 0.65625,-1.99765 1.99778,-1.99725 z m -33.97975,0.0129 c 1.34153,3.4e-4 1.99726,0.89523 1.99726,1.99725 0,1.10214 -0.65573,1.99671 -1.99726,1.99725 -1.34152,7e-4 -1.99777,-0.89413 -1.99777,-1.99725 0,-1.103 0.65625,-1.99764 1.99777,-1.99725 z"
           id="path3452-3" />
      </g>
      <path
         id="path4028-5"
         style="display:inline;fill:none;fill-rule:evenodd;stroke:#000000;stroke-width:0.1;stroke-dasharray:none;stroke-opacity:1"
         d="m 314.89997,180.00002 h -17 v -3.00004 l -36.00001,4e-5 10e-6,2.99996 -17,4e-5 v 17 h -3 v 36 h 3 v 17 h 17 v 3 h 36 v -3 h 17 v -17 h 3 v -36 h -3 z"
         sodipodi:nodetypes="ccccccccccccccccccccc" />
    </g>
    <path
       id="path13437"
       style="display:inline;fill:none;fill-rule:evenodd;stroke:#000000;stroke-width:0.1;stroke-dasharray:none;stroke-opacity:1"
       d="m 388.89999,157 h 3 v -20 h -3 v -14 h -20 l 0,3 h -30 v -3 h -20 l 0,14 h -3 v 20 h 3 v 13 h 70 z m -17,6 v 3 h -36 v -3 z"
       sodipodi:nodetypes="cccccccccccccccccccccc" />
    <g
       id="g1086"
       style="stroke-width:0.1;stroke-dasharray:none">
      <path
         id="path13502"
         style="fill:none;stroke:#000000;stroke-width:0.1;stroke-dasharray:none;stroke-linecap:round;stroke-linejoin:round"
         d="m 242.89999,121 v 16 h 3 v 20 h -3 v 13 h 76 v -13 h -3 v -20 h 3 v -14 l -67,1e-5 c -0.73236,-1.35863 -2,-2.00001 -3,-2.00001 z"
         sodipodi:nodetypes="ccccccccccccccc" />
      <circle
         style="display:inline;fill:none;stroke:#000000;stroke-width:0.1;stroke-dasharray:none"
         id="circle13504"
         cx="124.49988"
         cy="248.40013"
         transform="matrix(0,1,1,0,0,0)"
         r="2.2361166" />
      <path
         id="path13508"
         style="fill:none;stroke:#000000;stroke-width:0.1;stroke-dasharray:none"
         d="m 262.89999,166 v -3 h 36 v 3 z"
         sodipodi:nodetypes="ccccc" />
    </g>
    <g
       id="g1107"
       transform="matrix(1,0,0,-1,-76,390)">
      <path
         d="m 340.89999,203 v -15 h 3 v 15 z"
         style="fill:none;stroke:#000000;stroke-width:0.1;stroke-dasharray:none"
         id="path8130"
         sodipodi:nodetypes="ccccc" />
      <g
         id="g1094"
         style="stroke-width:0.1;stroke-dasharray:none"
         transform="matrix(-1,0,0,1,637.79998,50)">
        <path
           id="path1088"
           style="fill:none;stroke:#000000;stroke-width:0.1;stroke-linecap:round;stroke-linejoin:round;stroke-dasharray:none"
           d="m 242.89999,121 v 16 h 3 v 20 h -3 v 13 h 76 v -13 h -3 v -20 h 3 v -14 l -67,1e-5 c -0.73236,-1.35863 -2,-2.00001 -3,-2.00001 z"
           sodipodi:nodetypes="ccccccccccccccc" />
        <circle
           style="display:inline;fill:none;stroke:#000000;stroke-width:0.1;stroke-dasharray:none"
           id="circle1090"
           cx="124.49988"
           cy="248.40013"
           transform="matrix(0,1,1,0,0,0)"
           r="2.2361166" />
        <path
           id="path1092"
           style="fill:none;stroke:#000000;stroke-width:0.1;stroke-dasharray:none"
           d="m 262.89999,166 v -3 h 36 v 3 z"
           sodipodi:nodetypes="ccccc" />
      </g>
    </g>
  </g>
</svg>
